Useful functions for biometrical models • metan
…
lpc1 <- 
  data_ge2 %>% 
  select(starts_with("N")) %>% 
  lpcor()
print_table(lpc1$results)

# Compute the correlations for each level of the factor ENV
lpc2 <- lpcor(data_ge2, by = ENV)
print(lpc2)
# # A tibble: 420 × 6
#    ENV   Pairs      linear partial       t   prob
#    <fct> <chr>       <dbl>   <dbl>   <dbl>  <dbl>
#  1 A1    PH x EH   0.425     0.981  25.1   0     
#  2 A1    PH x EP  -0.124    -0.971 -20.1   0     
#  3 A1    PH x EL  -0.00287  -0.169  -0.841 0.408 
#  4 A1    PH x ED   0.0729    0.301   1.55  0.135 
#  5 A1    PH x CL  -0.158    -0.311  -1.60  0.122 
#  6 A1    PH x CD   0.140     0.183   0.911 0.372 
#  7 A1    PH x CW  -0.0111    0.155   0.771 0.448 
#  8 A1    PH x KW   0.0825    0.155   0.770 0.449 
#  9 A1    PH x NR  -0.0142    0.389   2.07  0.0496
# 10 A1    PH x NKR  0.140     0.271   1.38  0.181 
# # ℹ 410 more rows
…
# Inform n and r
corr_ci(n = 145, r = 0.34)
# -------------------------------------------------
# Nonparametric 95% half-width confidence interval 
# -------------------------------------------------
# Level of significance: 5%
# Correlation coefficient: 0.34
# Sample size: 145
# Confidence interval: 0.1422
# True parameter range from: 0.1978 to 0.4822 
# -------------------------------------------------

# Compute the confidence for each level of ENV
CI2 <- corr_ci(data_ge2, contains("E"), by = ENV)
# # A tibble: 21 × 7
#    V1    V2       Corr     n    CI      LL      UL
#    <chr> <chr>   <dbl> <int> <dbl>   <dbl>   <dbl>
#  1 EH    EP     0.839     39 0.185  0.655   1.02  
#  2 EH    EL     0.148     39 0.320 -0.172   0.467 
#  3 EH    ED    -0.0385    39 0.349 -0.387   0.310 
#  4 EH    CDED   0.186     39 0.310 -0.125   0.496 
#  5 EH    PERK  -0.205     39 0.306 -0.510   0.101 
#  6 EH    NKE   -0.324     39 0.278 -0.602  -0.0458
#  7 EP    EL     0.150     39 0.319 -0.169   0.469 
#  8 EP    ED    -0.0840    39 0.336 -0.420   0.252 
#  9 EP    CDED   0.328     39 0.277  0.0502  0.605 
# 10 EP    PERK  -0.221     39 0.302 -0.523   0.0801
# # ℹ 11 more rows
# # A tibble: 21 × 7
#    V1    V2       Corr     n    CI      LL    UL
#    <chr> <chr>   <dbl> <int> <dbl>   <dbl> <dbl>
#  1 EH    EP     0.899     39 0.176  0.722  1.08 
#  2 EH    EL     0.498     39 0.242  0.255  0.740
#  3 EH    ED     0.748     39 0.199  0.549  0.947
#  4 EH    CDED   0.211     39 0.304 -0.0935 0.515
#  5 EH    PERK   0.0187    39 0.354 -0.335  0.373
#  6 EH    NKE    0.269     39 0.290 -0.0217 0.559
#  7 EP    EL     0.365     39 0.269  0.0960 0.634
#  8 EP    ED     0.600     39 0.224  0.376  0.823
#  9 EP    CDED   0.249     39 0.295 -0.0463 0.544
# 10 EP    PERK  -0.0505    39 0.345 -0.396  0.295
# # ℹ 11 more rows
# # A tibble: 21 × 7
#    V1    V2        Corr     n    CI       LL      UL
#    <chr> <chr>    <dbl> <int> <dbl>    <dbl>   <dbl>
#  1 EH    EP     0.844      39 0.184  0.659   1.03   
#  2 EH    EL    -0.0977     39 0.333 -0.430   0.235  
#  3 EH    ED     0.363      39 0.270  0.0935  0.633  
#  4 EH    CDED  -0.282      39 0.287 -0.569   0.00544
#  5 EH    PERK   0.126      39 0.325 -0.199   0.451  
#  6 EH    NKE    0.279      39 0.288 -0.00876 0.567  
#  7 EP    EL    -0.194      39 0.308 -0.502   0.114  
#  8 EP    ED     0.200      39 0.307 -0.107   0.507  
#  9 EP    CDED  -0.00956    39 0.357 -0.366   0.347  
# 10 EP    PERK   0.0365     39 0.349 -0.313   0.386  
# # ℹ 11 more rows
# # A tibble: 21 × 7
#    V1    V2     Corr     n    CI      LL    UL
#    <chr> <chr> <dbl> <int> <dbl>   <dbl> <dbl>
#  1 EH    EP    0.781    39 0.194  0.587  0.975
#  2 EH    EL    0.250    39 0.295 -0.0446 0.545
#  3 EH    ED    0.404    39 0.261  0.143  0.665
#  4 EH    CDED  0.143    39 0.321 -0.178  0.464
#  5 EH    PERK  0.250    39 0.295 -0.0447 0.545
#  6 EH    NKE   0.246    39 0.296 -0.0492 0.542
#  7 EP    EL    0.241    39 0.297 -0.0559 0.538
#  8 EP    ED    0.210    39 0.304 -0.0942 0.514
#  9 EP    CDED  0.236    39 0.298 -0.0626 0.534
# 10 EP    PERK  0.156    39 0.318 -0.162  0.473
# # ℹ 11 more rows
…
Compute one distance for each environment

To compute the Mahalanobis distance for each environment (or any
grouping variable) we can use the argument by. Note that
pairs_mantel() is used to compare compute the Mantel’s test
for each combination of distance matrices. Let’s do it.

data_ge2 %>%
mahala_design(gen = GEN,
              rep = REP,
              resp = c(PH, EH, NKE, TKW, CL, CD, CW, KW),
              by = ENV)
# # A tibble: 52 × 14
#    ENV      H1   H10   H11   H12   H13    H2    H3    H4    H5    H6    H7    H8
#    <fct> <dbl> <dbl> <dbl> <dbl> <dbl> <dbl> <dbl> <dbl> <dbl> <dbl> <dbl> <dbl>
#  1 A1      0   24.3  21.0  21.5  19.0  29.0  20.2  10.7  19.1  16.7  26.9  33.9 
#  2 A1     24.3  0     4.64  7.63 28.4  20.4  12.4  24.5  27.8  23.6  18.0  12.9 
#  3 A1     21.0  4.64  0     7.05 35.4  15.9   9.21 17.2  18.7  27.1  15.9  16.5 
#  4 A1     21.5  7.63  7.05  0    18.2  12.5   6.66 13.4  15.4  20.6   6.11  6.69
#  5 A1     19.0 28.4  35.4  18.2   0    28.5  19.1  15.4  22.0   7.33 17.1  17.3 
#  6 A1     29.0 20.4  15.9  12.5  28.5   0     7.01 19.9  25.6  33.2  24.9  23.8 
#  7 A1     20.2 12.4   9.21  6.66 19.1   7.01  0     6.99 12.1  20.0  11.0  15.2 
#  8 A1     10.7 24.5  17.2  13.4  15.4  19.9   6.99  0     5.49 13.8  11.3  22.3 
#  9 A1     19.1 27.8  18.7  15.4  22.0  25.6  12.1   5.49  0    14.0   6.40 16.3 
# 10 A1     16.7 23.6  27.1  20.6   7.33 33.2  20.0  13.8  14.0   0    15.0  14.1 
# # ℹ 42 more rows
# # ℹ 1 more variable: H9 <dbl>
…
