Analyzing multienvironment trials using AMMI • metan
…
# 5         34.4
# 6         66.2
# 7         79.2
# 8         89.0
# 9         93.6
# 10        96.6
# 11        98.4
# 12        99.6
# 13       100.0
# 14          NA
# 15          NA
# ---------------------------------------------------------------------------
# Scores for genotypes and environments
# ---------------------------------------------------------------------------
# # A tibble: 24 × 12
#    type  Code      Y      PC1      PC2      PC3      PC4      PC5      PC6
#    <chr> <chr> <dbl>    <dbl>    <dbl>    <dbl>    <dbl>    <dbl>    <dbl>
#  1 GEN   G1    2.604  0.3166  -0.04417 -0.03600 -0.06595 -0.3125  -0.4272 
#  2 GEN   G10   2.471 -1.001   -0.5718  -0.1652  -0.3309  -0.1243   0.1064 
#  3 GEN   G2    2.744  0.1390   0.1988  -0.7331   0.4735  -0.04816  0.2841 
#  4 GEN   G3    2.955  0.04340 -0.1028   0.2284   0.1769  -0.1270   0.1400 
#  5 GEN   G4    2.642 -0.3251   0.4782  -0.09073  0.1417  -0.1924  -0.3550 
#  6 GEN   G5    2.537 -0.3260   0.2461   0.2452   0.1794   0.4662  -0.03315
#  7 GEN   G6    2.534 -0.09836  0.2429   0.5607   0.2377   0.05094  0.1011 
#  8 GEN   G7    2.741  0.2849   0.5871  -0.2068  -0.7085   0.2315   0.08406
#  9 GEN   G8    3.004  0.4995  -0.1916   0.3191  -0.1676  -0.3261   0.2886 
# 10 GEN   G9    2.510  0.4668  -0.8427  -0.1217   0.06385  0.3819  -0.1889 
# # ℹ 14 more rows
# # ℹ 3 more variables: PC7 <dbl>, PC8 <dbl>, PC9 <dbl>
…
