Random Sampling — utils_samples • metan
…
library(metan)
sample_random(data_ge, n = 5)
#> # A tibble: 5 × 5
#>   ENV   GEN   REP      GY    HM
#>   <fct> <fct> <fct> <dbl> <dbl>
#> 1 E8    G1    2      2.38  43  
#> 2 E14   G2    2      1.64  39.0
#> 3 E10   G10   3      1.17  42  
#> 4 E6    G5    3      2.53  47.6
#> 5 E9    G10   1      2.85  54  
sample_random(data_ge,
              n = 3,
              by = ENV)
#> # A tibble: 42 × 5
#>    ENV   GEN   REP      GY    HM
#>    <fct> <fct> <fct> <dbl> <dbl>
#>  1 E1    G2    1      3.21  45.2
#>  2 E1    G3    2      3.62  43.2
#>  3 E1    G10   3      2.48  48.8
#>  4 E10   G6    3      1.82  47  
#>  5 E10   G10   1      1.70  40  
#>  6 E10   G8    1      2.65  42  
#>  7 E11   G6    1      1.33  56  
#>  8 E11   G1    1      1.02  54  
#>  9 E11   G7    3      1.00  53  
#> 10 E12   G9    2      1.37  48.4
#> # ℹ 32 more rows
…
